…
### Import the file in *R*

``` r
library(elisar)
example <- system.file("extdata", "example.xls", package = "elisar")
input <- read_plate(example)
input
```

    ## # A tibble: 96 x 12
    ##    element_id        file       sheet_name sheet_pos format   row   col
    ##         <int>       <chr>            <chr>     <int>  <int> <chr> <chr>
    ##  1          1 example.xls Magellan Sheet 1         1     96     A     1
    ##  2          1 example.xls Magellan Sheet 1         1     96     B     1
    ##  3          1 example.xls Magellan Sheet 1         1     96     C     1
    ##  4          1 example.xls Magellan Sheet 1         1     96     D     1
    ##  5          1 example.xls Magellan Sheet 1         1     96     E     1
    ##  6          1 example.xls Magellan Sheet 1         1     96     F     1
    ##  7          1 example.xls Magellan Sheet 1         1     96     G     1
    ##  8          1 example.xls Magellan Sheet 1         1     96     H     1
    ##  9          1 example.xls Magellan Sheet 1         1     96     A     2
    ## 10          1 example.xls Magellan Sheet 1         1     96     B     2
    ## # ... with 86 more rows, and 5 more variables: id <chr>,
    ## #   description <chr>, treatment <chr>, medium <chr>, value <dbl>

### Perform the regression

``` r
df <- elisa_analyse(input)
df
```

    ## # A tibble: 34 x 20
    ##    .group drm_slope drm_lower drm_upper drm_ed50 out_of_range element_id
    ##     <int>     <dbl>     <dbl>     <dbl>    <dbl>        <lgl>      <int>
    ##  1      1  -1.38447 0.1070846  3.200827 622.9272        FALSE          1
    ##  2      1  -1.38447 0.1070846  3.200827 622.9272        FALSE          1
    ##  3      1  -1.38447 0.1070846  3.200827 622.9272        FALSE          1
    ##  4      1  -1.38447 0.1070846  3.200827 622.9272        FALSE          1
    ##  5      1  -1.38447 0.1070846  3.200827 622.9272        FALSE          1
    ##  6      1  -1.38447 0.1070846  3.200827 622.9272        FALSE          1
    ##  7      1  -1.38447 0.1070846  3.200827 622.9272        FALSE          1
    ##  8      1  -1.38447 0.1070846  3.200827 622.9272        FALSE          1
    ##  9      1  -1.38447 0.1070846  3.200827 622.9272        FALSE          1
    ## 10      1  -1.38447 0.1070846  3.200827 622.9272        FALSE          1
    ## # ... with 24 more rows, and 13 more variables: file <chr>,
    ## #   sheet_name <chr>, sheet_pos <int>, format <int>, row <chr>, col <chr>,
    ## #   id <chr>, description <chr>, treatment <chr>, medium <chr>,
    ## #   value <dbl>, estimate <dbl>, estimate_sd <dbl>
…
